Trabalho 6/Trab6/simulation/qsim/memMIPS.msim.vcd
$comment
	File created using the following command:
		vcd file memMIPS.msim.vcd -direction
$end
$date
	Sun Jun 17 21:45:29 2018
$end
$version
	ModelSim Version 10.1d
$end
$timescale
	1ps
$end
$scope module memMIPS_vlg_vec_tst $end
$var reg 1 ! clk $end
$var reg 1 " clk_mem $end
$var reg 8 # initpc8b [7:0] $end
$var reg 1 $ m1 $end
$var reg 1 % wPC $end
$var wire 1 & outbcd1 [6] $end
$var wire 1 ' outbcd1 [5] $end
$var wire 1 ( outbcd1 [4] $end
$var wire 1 ) outbcd1 [3] $end
$var wire 1 * outbcd1 [2] $end
$var wire 1 + outbcd1 [1] $end
$var wire 1 , outbcd1 [0] $end
$var wire 1 - outbcd2 [6] $end
$var wire 1 . outbcd2 [5] $end
$var wire 1 / outbcd2 [4] $end
$var wire 1 0 outbcd2 [3] $end
$var wire 1 1 outbcd2 [2] $end
$var wire 1 2 outbcd2 [1] $end
$var wire 1 3 outbcd2 [0] $end
$var wire 1 4 outputmem [31] $end
$var wire 1 5 outputmem [30] $end
$var wire 1 6 outputmem [29] $end
$var wire 1 7 outputmem [28] $end
$var wire 1 8 outputmem [27] $end
$var wire 1 9 outputmem [26] $end
$var wire 1 : outputmem [25] $end
$var wire 1 ; outputmem [24] $end
$var wire 1 < outputmem [23] $end
$var wire 1 = outputmem [22] $end
$var wire 1 > outputmem [21] $end
$var wire 1 ? outputmem [20] $end
$var wire 1 @ outputmem [19] $end
$var wire 1 A outputmem [18] $end
$var wire 1 B outputmem [17] $end
$var wire 1 C outputmem [16] $end
$var wire 1 D outputmem [15] $end
$var wire 1 E outputmem [14] $end
$var wire 1 F outputmem [13] $end
$var wire 1 G outputmem [12] $end
$var wire 1 H outputmem [11] $end
$var wire 1 I outputmem [10] $end
$var wire 1 J outputmem [9] $end
$var wire 1 K outputmem [8] $end
$var wire 1 L outputmem [7] $end
$var wire 1 M outputmem [6] $end
$var wire 1 N outputmem [5] $end
$var wire 1 O outputmem [4] $end
$var wire 1 P outputmem [3] $end
$var wire 1 Q outputmem [2] $end
$var wire 1 R outputmem [1] $end
$var wire 1 S outputmem [0] $end
$var wire 1 T sampler $end
$scope module i1 $end
$var wire 1 U gnd $end
$var wire 1 V vcc $end
$var wire 1 W unknown $end
$var tri1 1 X devclrn $end
$var tri1 1 Y devpor $end
$var tri1 1 Z devoe $end
$var wire 1 [ clk~combout $end
$var wire 1 \ clk~clkctrl_outclk $end
$var wire 1 ] clk_mem~combout $end
$var wire 1 ^ clk_mem~clkctrl_outclk $end
$var wire 1 _ ~GND~combout $end
$var wire 1 ` pc|outp[2]~8_combout $end
$var wire 1 a m1~combout $end
$var wire 1 b wPC~combout $end
$var wire 1 c pc|outp[2]~9 $end
$var wire 1 d pc|outp[3]~10_combout $end
$var wire 1 e pc|outp[3]~11 $end
$var wire 1 f pc|outp[4]~12_combout $end
$var wire 1 g pc|outp[4]~13 $end
$var wire 1 h pc|outp[5]~14_combout $end
$var wire 1 i pc|outp[5]~15 $end
$var wire 1 j pc|outp[6]~16_combout $end
$var wire 1 k pc|outp[6]~17 $end
$var wire 1 l pc|outp[7]~18_combout $end
$var wire 1 m pc|outp[7]~19 $end
$var wire 1 n pc|outp[8]~20_combout $end
$var wire 1 o pc|outp[8]~21 $end
$var wire 1 p pc|outp[9]~22_combout $end
$var wire 1 q d7seg1|Mux5~0_combout $end
$var wire 1 r d7seg1|Mux2~0_combout $end
$var wire 1 s d7seg1|Mux2~1_combout $end
$var wire 1 t d7seg2|Mux6~0_combout $end
$var wire 1 u d7seg2|Mux5~0_combout $end
$var wire 1 v d7seg2|Mux4~0_combout $end
$var wire 1 w d7seg2|Mux3~0_combout $end
$var wire 1 x d7seg2|Mux2~0_combout $end
$var wire 1 y d7seg2|Mux1~0_combout $end
$var wire 1 z d7seg2|Mux0~0_combout $end
$var wire 1 { ramMIPS|altsyncram_component|auto_generated|q_a [31] $end
$var wire 1 | ramMIPS|altsyncram_component|auto_generated|q_a [30] $end
$var wire 1 } ramMIPS|altsyncram_component|auto_generated|q_a [29] $end
$var wire 1 ~ ramMIPS|altsyncram_component|auto_generated|q_a [28] $end
$var wire 1 !! ramMIPS|altsyncram_component|auto_generated|q_a [27] $end
$var wire 1 "! ramMIPS|altsyncram_component|auto_generated|q_a [26] $end
$var wire 1 #! ramMIPS|altsyncram_component|auto_generated|q_a [25] $end
$var wire 1 $! ramMIPS|altsyncram_component|auto_generated|q_a [24] $end
$var wire 1 %! ramMIPS|altsyncram_component|auto_generated|q_a [23] $end
$var wire 1 &! ramMIPS|altsyncram_component|auto_generated|q_a [22] $end
$var wire 1 '! ramMIPS|altsyncram_component|auto_generated|q_a [21] $end
$var wire 1 (! ramMIPS|altsyncram_component|auto_generated|q_a [20] $end
$var wire 1 )! ramMIPS|altsyncram_component|auto_generated|q_a [19] $end
$var wire 1 *! ramMIPS|altsyncram_component|auto_generated|q_a [18] $end
$var wire 1 +! ramMIPS|altsyncram_component|auto_generated|q_a [17] $end
$var wire 1 ,! ramMIPS|altsyncram_component|auto_generated|q_a [16] $end
$var wire 1 -! ramMIPS|altsyncram_component|auto_generated|q_a [15] $end
$var wire 1 .! ramMIPS|altsyncram_component|auto_generated|q_a [14] $end
$var wire 1 /! ramMIPS|altsyncram_component|auto_generated|q_a [13] $end
$var wire 1 0! ramMIPS|altsyncram_component|auto_generated|q_a [12] $end
$var wire 1 1! ramMIPS|altsyncram_component|auto_generated|q_a [11] $end
$var wire 1 2! ramMIPS|altsyncram_component|auto_generated|q_a [10] $end
$var wire 1 3! ramMIPS|altsyncram_component|auto_generated|q_a [9] $end
$var wire 1 4! ramMIPS|altsyncram_component|auto_generated|q_a [8] $end
$var wire 1 5! ramMIPS|altsyncram_component|auto_generated|q_a [7] $end
$var wire 1 6! ramMIPS|altsyncram_component|auto_generated|q_a [6] $end
$var wire 1 7! ramMIPS|altsyncram_component|auto_generated|q_a [5] $end
$var wire 1 8! ramMIPS|altsyncram_component|auto_generated|q_a [4] $end
$var wire 1 9! ramMIPS|altsyncram_component|auto_generated|q_a [3] $end
$var wire 1 :! ramMIPS|altsyncram_component|auto_generated|q_a [2] $end
$var wire 1 ;! ramMIPS|altsyncram_component|auto_generated|q_a [1] $end
$var wire 1 <! ramMIPS|altsyncram_component|auto_generated|q_a [0] $end
$var wire 1 =! pc|outp [31] $end
$var wire 1 >! pc|outp [30] $end
$var wire 1 ?! pc|outp [29] $end
$var wire 1 @! pc|outp [28] $end
$var wire 1 A! pc|outp [27] $end
$var wire 1 B! pc|outp [26] $end
$var wire 1 C! pc|outp [25] $end
$var wire 1 D! pc|outp [24] $end
$var wire 1 E! pc|outp [23] $end
$var wire 1 F! pc|outp [22] $end
$var wire 1 G! pc|outp [21] $end
$var wire 1 H! pc|outp [20] $end
$var wire 1 I! pc|outp [19] $end
$var wire 1 J! pc|outp [18] $end
$var wire 1 K! pc|outp [17] $end
$var wire 1 L! pc|outp [16] $end
$var wire 1 M! pc|outp [15] $end
$var wire 1 N! pc|outp [14] $end
$var wire 1 O! pc|outp [13] $end
$var wire 1 P! pc|outp [12] $end
$var wire 1 Q! pc|outp [11] $end
$var wire 1 R! pc|outp [10] $end
$var wire 1 S! pc|outp [9] $end
$var wire 1 T! pc|outp [8] $end
$var wire 1 U! pc|outp [7] $end
$var wire 1 V! pc|outp [6] $end
$var wire 1 W! pc|outp [5] $end
$var wire 1 X! pc|outp [4] $end
$var wire 1 Y! pc|outp [3] $end
$var wire 1 Z! pc|outp [2] $end
$var wire 1 [! pc|outp [1] $end
$var wire 1 \! pc|outp [0] $end
$var wire 1 ]! initpc8b~combout [7] $end
$var wire 1 ^! initpc8b~combout [6] $end
$var wire 1 _! initpc8b~combout [5] $end
$var wire 1 `! initpc8b~combout [4] $end
$var wire 1 a! initpc8b~combout [3] $end
$var wire 1 b! initpc8b~combout [2] $end
$var wire 1 c! initpc8b~combout [1] $end
$var wire 1 d! initpc8b~combout [0] $end
$var wire 1 e! ramMIPS|altsyncram_component|auto_generated|ram_block1a0_PORTADATAOUT_bus [17] $end
$var wire 1 f! ramMIPS|altsyncram_component|auto_generated|ram_block1a0_PORTADATAOUT_bus [16] $end
$var wire 1 g! ramMIPS|altsyncram_component|auto_generated|ram_block1a0_PORTADATAOUT_bus [15] $end
$var wire 1 h! ramMIPS|altsyncram_component|auto_generated|ram_block1a0_PORTADATAOUT_bus [14] $end
$var wire 1 i! ramMIPS|altsyncram_component|auto_generated|ram_block1a0_PORTADATAOUT_bus [13] $end
$var wire 1 j! ramMIPS|altsyncram_component|auto_generated|ram_block1a0_PORTADATAOUT_bus [12] $end
$var wire 1 k! ramMIPS|altsyncram_component|auto_generated|ram_block1a0_PORTADATAOUT_bus [11] $end
$var wire 1 l! ramMIPS|altsyncram_component|auto_generated|ram_block1a0_PORTADATAOUT_bus [10] $end
$var wire 1 m! ramMIPS|altsyncram_component|auto_generated|ram_block1a0_PORTADATAOUT_bus [9] $end
$var wire 1 n! ramMIPS|altsyncram_component|auto_generated|ram_block1a0_PORTADATAOUT_bus [8] $end
$var wire 1 o! ramMIPS|altsyncram_component|auto_generated|ram_block1a0_PORTADATAOUT_bus [7] $end
$var wire 1 p! ramMIPS|altsyncram_component|auto_generated|ram_block1a0_PORTADATAOUT_bus [6] $end
$var wire 1 q! ramMIPS|altsyncram_component|auto_generated|ram_block1a0_PORTADATAOUT_bus [5] $end
$var wire 1 r! ramMIPS|altsyncram_component|auto_generated|ram_block1a0_PORTADATAOUT_bus [4] $end
$var wire 1 s! ramMIPS|altsyncram_component|auto_generated|ram_block1a0_PORTADATAOUT_bus [3] $end
$var wire 1 t! ramMIPS|altsyncram_component|auto_generated|ram_block1a0_PORTADATAOUT_bus [2] $end
$var wire 1 u! ramMIPS|altsyncram_component|auto_generated|ram_block1a0_PORTADATAOUT_bus [1] $end
$var wire 1 v! ramMIPS|altsyncram_component|auto_generated|ram_block1a0_PORTADATAOUT_bus [0] $end
$var wire 1 w! ramMIPS|altsyncram_component|auto_generated|ram_block1a18_PORTADATAOUT_bus [13] $end
$var wire 1 x! ramMIPS|altsyncram_component|auto_generated|ram_block1a18_PORTADATAOUT_bus [12] $end
$var wire 1 y! ramMIPS|altsyncram_component|auto_generated|ram_block1a18_PORTADATAOUT_bus [11] $end
$var wire 1 z! ramMIPS|altsyncram_component|auto_generated|ram_block1a18_PORTADATAOUT_bus [10] $end
$var wire 1 {! ramMIPS|altsyncram_component|auto_generated|ram_block1a18_PORTADATAOUT_bus [9] $end
$var wire 1 |! ramMIPS|altsyncram_component|auto_generated|ram_block1a18_PORTADATAOUT_bus [8] $end
$var wire 1 }! ramMIPS|altsyncram_component|auto_generated|ram_block1a18_PORTADATAOUT_bus [7] $end
$var wire 1 ~! ramMIPS|altsyncram_component|auto_generated|ram_block1a18_PORTADATAOUT_bus [6] $end
$var wire 1 !" ramMIPS|altsyncram_component|auto_generated|ram_block1a18_PORTADATAOUT_bus [5] $end
$var wire 1 "" ramMIPS|altsyncram_component|auto_generated|ram_block1a18_PORTADATAOUT_bus [4] $end
$var wire 1 #" ramMIPS|altsyncram_component|auto_generated|ram_block1a18_PORTADATAOUT_bus [3] $end
$var wire 1 $" ramMIPS|altsyncram_component|auto_generated|ram_block1a18_PORTADATAOUT_bus [2] $end
$var wire 1 %" ramMIPS|altsyncram_component|auto_generated|ram_block1a18_PORTADATAOUT_bus [1] $end
$var wire 1 &" ramMIPS|altsyncram_component|auto_generated|ram_block1a18_PORTADATAOUT_bus [0] $end
$upscope $end
$upscope $end
$enddefinitions $end
#0
$dumpvars
0!
0"
b0 #
1$
1%
1,
0+
0*
0)
0(
0'
0&
13
02
01
00
0/
0.
0-
0S
0R
0Q
0P
0O
0N
0M
0L
0K
0J
0I
0H
0G
0F
0E
0D
0C
0B
0A
0@
0?
0>
0=
0<
0;
0:
09
08
07
06
05
04
xT
0U
1V
xW
1X
1Y
1Z
0[
0\
0]
0^
0_
1`
1a
1b
0c
0d
1e
0f
0g
0h
1i
0j
0k
0l
1m
0n
0o
0p
0q
0r
0s
0t
0u
0v
0w
0x
0y
0z
0<!
0;!
0:!
09!
08!
07!
06!
05!
04!
03!
02!
01!
00!
0/!
0.!
0-!
0,!
0+!
0*!
0)!
0(!
0'!
0&!
0%!
0$!
0#!
0"!
0!!
0~
0}
0|
0{
z\!
z[!
0Z!
0Y!
0X!
0W!
0V!
0U!
0T!
0S!
zR!
zQ!
zP!
zO!
zN!
zM!
zL!
zK!
zJ!
zI!
zH!
zG!
zF!
zE!
zD!
zC!
zB!
zA!
z@!
z?!
z>!
z=!
zd!
zc!
0b!
0a!
0`!
0_!
0^!
0]!
0v!
0u!
0t!
0s!
0r!
0q!
0p!
0o!
0n!
0m!
0l!
0k!
0j!
0i!
0h!
0g!
0f!
0e!
0&"
0%"
0$"
0#"
0""
0!"
0~!
0}!
0|!
0{!
0z!
0y!
0x!
0w!
$end
#1000
1"
1]
1^
0T
#1001
1%"
1y!
1i!
1)!
1}
1/!
1t
1@
16
1F
03
#2000
0"
0]
0^
1T
#3000
1"
1]
1^
0T
#4000
0"
0]
0^
1T
#5000
1"
1]
1^
0T
#6000
0"
0]
0^
1T
#7000
1"
1]
1^
0T
#8000
0"
0]
0^
1T
#9000
1"
1]
1^
0T
#10000
1!
0"
1[
0]
0^
1\
1T
#11000
1"
1]
1^
0T
#12000
0"
0]
0^
1T
#13000
1"
1]
1^
0T
#14000
0"
0]
0^
1T
#15000
1"
1]
1^
0T
#16000
0"
0]
0^
1T
#17000
1"
1]
1^
0T
#18000
0"
0]
0^
1T
#19000
1"
1]
1^
0T
#20000
0!
0"
0[
0]
0^
0\
1T
#21000
1"
1]
1^
0T
#22000
0"
0]
0^
1T
#23000
1"
1]
1^
0T
#24000
0"
0]
0^
1T
#25000
1"
1]
1^
0T
#26000
0"
0]
0^
1T
#27000
1"
1]
1^
0T
#28000
0"
0]
0^
1T
#29000
1"
1]
1^
0T
#30000
0$
1!
0"
0a
1[
0]
0^
1\
1T
1Z!
1c
0`
1d
#31000
1"
1]
1^
0T
#31001
1~!
1|!
1{!
0y!
1w!
0i!
1f!
1$!
1"!
1!!
0}
1{
0/!
1,!
1v
1u
1s
1q
1;
19
18
06
14
0F
1C
0,
11
12
1(
1+
#32000
0"
0]
0^
1T
#33000
1"
1]
1^
0T
#34000
0"
0]
0^
1T
#35000
1"
1]
1^
0T
#36000
0"
0]
0^
1T
#37000
1"
1]
1^
0T
#38000
0"
0]
0^
1T
#39000
1"
1]
1^
0T
#40000
0!
0"
0[
0]
0^
0\
1T
#41000
1"
1]
1^
0T
#42000
0"
0]
0^
1T
#43000
1"
1]
1^
0T
#44000
0"
0]
0^
1T
#45000
1"
1]
1^
0T
#46000
0"
0]
0^
1T
#47000
1"
1]
1^
0T
#48000
0"
0]
0^
1T
#49000
1"
1]
1^
0T
#50000
1!
0"
1[
0]
0^
1\
1T
1Y!
0Z!
0e
0d
0c
1`
1f
1e
1d
0f
#51000
1"
1]
1^
0T
#51001
1t!
0f!
1e!
1:!
0,!
1+!
1Q
0C
1B
#52000
0"
0]
0^
1T
#53000
1"
1]
1^
0T
#54000
0"
0]
0^
1T
#55000
1"
1]
1^
0T
#56000
0"
0]
0^
1T
#57000
1"
1]
1^
0T
#58000
0"
0]
0^
1T
#59000
1"
1]
1^
0T
#60000
0!
0"
0[
0]
0^
0\
1T
#61000
1"
1]
1^
0T
#62000
0"
0]
0^
1T
#63000
1"
1]
1^
0T
#64000
0"
0]
0^
1T
#65000
1"
1]
1^
0T
#66000
0"
0]
0^
1T
#67000
1"
1]
1^
0T
#68000
0"
0]
0^
1T
#69000
1"
1]
1^
0T
#70000
1!
0"
1[
0]
0^
1\
1T
1Z!
1c
0`
0e
0d
1f
#71000
1"
1]
1^
0T
#71001
0t!
1s!
1f!
0:!
19!
1,!
0Q
1P
1C
#72000
0"
0]
0^
1T
#73000
1"
1]
1^
0T
#74000
0"
0]
0^
1T
#75000
1"
1]
1^
0T
#76000
0"
0]
0^
1T
#77000
1"
1]
1^
0T
#78000
0"
0]
0^
1T
#79000
1"
1]
1^
0T
#80000
0!
0"
0[
0]
0^
0\
1T
#81000
1"
1]
1^
0T
#82000
0"
0]
0^
1T
#83000
1"
1]
1^
0T
#84000
0"
0]
0^
1T
#85000
1"
1]
1^
0T
#86000
0"
0]
0^
1T
#87000
1"
1]
1^
0T
#88000
0"
0]
0^
1T
#89000
1"
1]
1^
0T
#90000
1!
0"
1[
0]
0^
1\
1T
1X!
0Y!
0Z!
1g
0f
1e
1d
0c
1`
1h
0g
1f
0d
0h
#91000
1"
1]
1^
0T
#91001
1&"
1t!
0f!
0e!
1*!
1:!
0,!
0+!
1A
1Q
0C
0B
#92000
0"
0]
0^
1T
#93000
1"
1]
1^
0T
#94000
0"
0]
0^
1T
#95000
1"
1]
1^
0T
#96000
0"
0]
0^
1T
#97000
1"
1]
1^
0T
#98000
0"
0]
0^
1T
#99000
1"
1]
1^
0T
#100000
0!
0"
0[
0]
0^
0\
1T
#101000
1"
1]
1^
0T
#102000
0"
0]
0^
1T
#103000
1"
1]
1^
0T
#104000
0"
0]
0^
1T
#105000
1"
1]
1^
0T
#106000
0"
0]
0^
1T
#107000
1"
1]
1^
0T
#108000
0"
0]
0^
1T
#109000
1"
1]
1^
0T
#110000
1!
0"
1[
0]
0^
1\
1T
1Z!
1c
0`
1d
#111000
1"
1]
1^
0T
#111001
0t!
0s!
1r!
1f!
0:!
09!
18!
1,!
0Q
0P
1O
1C
#112000
0"
0]
0^
1T
#113000
1"
1]
1^
0T
#114000
0"
0]
0^
1T
#115000
1"
1]
1^
0T
#116000
0"
0]
0^
1T
#117000
1"
1]
1^
0T
#118000
0"
0]
0^
1T
#119000
1"
1]
1^
0T
#120000
0!
0"
0[
0]
0^
0\
1T
#121000
1"
1]
1^
0T
#122000
0"
0]
0^
1T
#123000
1"
1]
1^
0T
#124000
0"
0]
0^
1T
#125000
1"
1]
1^
0T
#126000
0"
0]
0^
1T
#127000
1"
1]
1^
0T
#128000
0"
0]
0^
1T
#129000
1"
1]
1^
0T
#130000
1!
0"
1[
0]
0^
1\
1T
1Y!
0Z!
0e
0d
0c
1`
1g
0f
1e
1d
1h
0g
1f
0h
#131000
1"
1]
1^
0T
#131001
0&"
1""
0|!
0{!
0w!
0r!
1q!
1g!
0*!
1&!
0"!
0!!
0{
08!
17!
1-!
0v
0u
0t
0s
0q
0A
1=
09
08
04
0O
1N
1D
1,
01
02
0(
0+
13
#132000
0"
0]
0^
1T
#133000
1"
1]
1^
0T
#134000
0"
0]
0^
1T
#135000
1"
1]
1^
0T
#136000
0"
0]
0^
1T
#137000
1"
1]
1^
0T
#138000
0"
0]
0^
1T
#139000
1"
1]
1^
0T
#140000
0!
0"
0[
0]
0^
0\
1T
#141000
1"
1]
1^
0T
#142000
0"
0]
0^
1T
#143000
1"
1]
1^
0T
#144000
0"
0]
0^
1T
#145000
1"
1]
1^
0T
#146000
0"
0]
0^
1T
#147000
1"
1]
1^
0T
#148000
0"
0]
0^
1T
#149000
1"
1]
1^
0T
#150000
1!
0"
1[
0]
0^
1\
1T
1Z!
1c
0`
0e
0d
1g
0f
1h
#151000
1"
1]
1^
0T
#151001
1u!
1k!
1;!
11!
1R
1H
#152000
0"
0]
0^
1T
#153000
1"
1]
1^
0T
#154000
0"
0]
0^
1T
#155000
1"
1]
1^
0T
#156000
0"
0]
0^
1T
#157000
1"
1]
1^
0T
#158000
0"
0]
0^
1T
#159000
1"
1]
1^
0T
#160000
0!
0"
0[
0]
0^
0\
1T
#161000
1"
1]
1^
0T
#162000
0"
0]
0^
1T
#163000
1"
1]
1^
0T
#164000
0"
0]
0^
1T
#165000
1"
1]
1^
0T
#166000
0"
0]
0^
1T
#167000
1"
1]
1^
0T
#168000
0"
0]
0^
1T
#169000
1"
1]
1^
0T
#170000
1!
0"
1[
0]
0^
1\
1T
1W!
0X!
0Y!
0Z!
0i
0h
0g
1f
1e
1d
0c
1`
1j
1i
1h
0f
0d
0j
#171000
1"
1]
1^
0T
#171001
1&"
0""
1!"
0u!
1t!
0k!
1j!
1*!
0&!
1%!
0;!
1:!
01!
10!
1A
0=
1<
0R
1Q
0H
1G
#172000
0"
0]
0^
1T
#173000
1"
1]
1^
0T
#174000
0"
0]
0^
1T
#175000
1"
1]
1^
0T
#176000
0"
0]
0^
1T
#177000
1"
1]
1^
0T
#178000
0"
0]
0^
1T
#179000
1"
1]
1^
0T
#180000
0!
0"
0[
0]
0^
0\
1T
#181000
1"
1]
1^
0T
#182000
0"
0]
0^
1T
#183000
1"
1]
1^
0T
#184000
0"
0]
0^
1T
#185000
1"
1]
1^
0T
#186000
0"
0]
0^
1T
#187000
1"
1]
1^
0T
#188000
0"
0]
0^
1T
#189000
1"
1]
1^
0T
#190000
1!
0"
1[
0]
0^
1\
1T
1Z!
1c
0`
1d
#191000
1"
1]
1^
0T
#191001
0&"
1#"
0!"
1u!
0t!
1s!
1k!
1e!
0*!
1'!
0%!
1;!
0:!
19!
11!
1+!
0A
1>
0<
1R
0Q
1P
1H
1B
#192000
0"
0]
0^
1T
#193000
1"
1]
1^
0T
#194000
0"
0]
0^
1T
#195000
1"
1]
1^
0T
#196000
0"
0]
0^
1T
#197000
1"
1]
1^
0T
#198000
0"
0]
0^
1T
#199000
1"
1]
1^
0T
#200000
0!
0"
0[
0]
0^
0\
1T
#201000
1"
1]
1^
0T
#202000
0"
0]
0^
1T
#203000
1"
1]
1^
0T
#204000
0"
0]
0^
1T
#205000
1"
1]
1^
0T
#206000
0"
0]
0^
1T
#207000
1"
1]
1^
0T
#208000
0"
0]
0^
1T
#209000
1"
1]
1^
0T
#210000
1!
0"
1[
0]
0^
1\
1T
1Y!
0Z!
0e
0d
0c
1`
1f
1e
1d
0f
#211000
1"
1]
1^
0T
#211001
0%"
0#"
0~!
0u!
0s!
0q!
0k!
0j!
0g!
0f!
0e!
0)!
0'!
0$!
0;!
09!
07!
01!
00!
0-!
0,!
0+!
0@
0>
0;
0R
0P
0N
0H
0G
0D
0C
0B
#212000
0"
0]
0^
1T
#213000
1"
1]
1^
0T
#214000
0"
0]
0^
1T
#215000
1"
1]
1^
0T
#216000
0"
0]
0^
1T
#217000
1"
1]
1^
0T
#218000
0"
0]
0^
1T
#219000
1"
1]
1^
0T
#220000
0!
0"
0[
0]
0^
0\
1T
#221000
1"
1]
1^
0T
#222000
0"
0]
0^
1T
#223000
1"
1]
1^
0T
#224000
0"
0]
0^
1T
#225000
1"
1]
1^
0T
#226000
0"
0]
0^
1T
#227000
1"
1]
1^
0T
#228000
0"
0]
0^
1T
#229000
1"
1]
1^
0T
#230000
1!
0"
1[
0]
0^
1\
1T
1Z!
1c
0`
0e
0d
1f
#231000
1"
1]
1^
0T
#232000
0"
0]
0^
1T
#233000
1"
1]
1^
0T
#234000
0"
0]
0^
1T
#235000
1"
1]
1^
0T
#236000
0"
0]
0^
1T
#237000
1"
1]
1^
0T
#238000
0"
0]
0^
1T
#239000
1"
1]
1^
0T
#240000
0!
0"
0[
0]
0^
0\
1T
#241000
1"
1]
1^
0T
#242000
0"
0]
0^
1T
#243000
1"
1]
1^
0T
#244000
0"
0]
0^
1T
#245000
1"
1]
1^
0T
#246000
0"
0]
0^
1T
#247000
1"
1]
1^
0T
#248000
0"
0]
0^
1T
#249000
1"
1]
1^
0T
#250000
1!
0"
1[
0]
0^
1\
1T
1X!
0Y!
0Z!
1g
0f
1e
1d
0c
1`
0i
0h
0g
1f
0d
1j
1i
1h
0j
#251000
1"
1]
1^
0T
#252000
0"
0]
0^
1T
#253000
1"
1]
1^
0T
#254000
0"
0]
0^
1T
#255000
1"
1]
1^
0T
#256000
0"
0]
0^
1T
#257000
1"
1]
1^
0T
#258000
0"
0]
0^
1T
#259000
1"
1]
1^
0T
#260000
0!
0"
0[
0]
0^
0\
1T
#261000
1"
1]
1^
0T
#262000
0"
0]
0^
1T
#263000
1"
1]
1^
0T
#264000
0"
0]
0^
1T
#265000
1"
1]
1^
0T
#266000
0"
0]
0^
1T
#267000
1"
1]
1^
0T
#268000
0"
0]
0^
1T
#269000
1"
1]
1^
0T
#270000
1!
0"
1[
0]
0^
1\
1T
1Z!
1c
0`
1d
#271000
1"
1]
1^
0T
#272000
0"
0]
0^
1T
#273000
1"
1]
1^
0T
#274000
0"
0]
0^
1T
#275000
1"
1]
1^
0T
#276000
0"
0]
0^
1T
#277000
1"
1]
1^
0T
#278000
0"
0]
0^
1T
#279000
1"
1]
1^
0T
#280000
0!
0"
0[
0]
0^
0\
1T
#281000
1"
1]
1^
0T
#282000
0"
0]
0^
1T
#283000
1"
1]
1^
0T
#284000
0"
0]
0^
1T
#285000
1"
1]
1^
0T
#286000
0"
0]
0^
1T
#287000
1"
1]
1^
0T
#288000
0"
0]
0^
1T
#289000
1"
1]
1^
0T
#290000
1!
0"
1[
0]
0^
1\
1T
1Y!
0Z!
0e
0d
0c
1`
1g
0f
1e
1d
0i
0h
0g
1f
1j
1i
1h
0j
#291000
1"
1]
1^
0T
#292000
0"
0]
0^
1T
#293000
1"
1]
1^
0T
#294000
0"
0]
0^
1T
#295000
1"
1]
1^
0T
#296000
0"
0]
0^
1T
#297000
1"
1]
1^
0T
#298000
0"
0]
0^
1T
#299000
1"
1]
1^
0T
#300000
0!
0"
0[
0]
0^
0\
1T
#301000
1"
1]
1^
0T
#302000
0"
0]
0^
1T
#303000
1"
1]
1^
0T
#304000
0"
0]
0^
1T
#305000
1"
1]
1^
0T
#306000
0"
0]
0^
1T
#307000
1"
1]
1^
0T
#308000
0"
0]
0^
1T
#309000
1"
1]
1^
0T
#310000
1!
0"
1[
0]
0^
1\
1T
1Z!
1c
0`
0e
0d
1g
0f
0i
0h
1j
#311000
1"
1]
1^
0T
#312000
0"
0]
0^
1T
#313000
1"
1]
1^
0T
#314000
0"
0]
0^
1T
#315000
1"
1]
1^
0T
#316000
0"
0]
0^
1T
#317000
1"
1]
1^
0T
#318000
0"
0]
0^
1T
#319000
1"
1]
1^
0T
#320000
0!
0"
0[
0]
0^
0\
1T
#321000
1"
1]
1^
0T
#322000
0"
0]
0^
1T
#323000
1"
1]
1^
0T
#324000
0"
0]
0^
1T
#325000
1"
1]
1^
0T
#326000
0"
0]
0^
1T
#327000
1"
1]
1^
0T
#328000
0"
0]
0^
1T
#329000
1"
1]
1^
0T
#330000
1!
0"
1[
0]
0^
1\
1T
1V!
0W!
0X!
0Y!
0Z!
1k
0j
1i
1h
0g
1f
1e
1d
0c
1`
1l
0k
1j
0h
0f
0d
0l
#331000
1"
1]
1^
0T
#332000
0"
0]
0^
1T
#333000
1"
1]
1^
0T
#334000
0"
0]
0^
1T
#335000
1"
1]
1^
0T
#336000
0"
0]
0^
1T
#337000
1"
1]
1^
0T
#338000
0"
0]
0^
1T
#339000
1"
1]
1^
0T
#340000
0!
0"
0[
0]
0^
0\
1T
#341000
1"
1]
1^
0T
#342000
0"
0]
0^
1T
#343000
1"
1]
1^
0T
#344000
0"
0]
0^
1T
#345000
1"
1]
1^
0T
#346000
0"
0]
0^
1T
#347000
1"
1]
1^
0T
#348000
0"
0]
0^
1T
#349000
1"
1]
1^
0T
#350000
1!
0"
1[
0]
0^
1\
1T
1Z!
1c
0`
1d
#351000
1"
1]
1^
0T
#352000
0"
0]
0^
1T
#353000
1"
1]
1^
0T
#354000
0"
0]
0^
1T
#355000
1"
1]
1^
0T
#356000
0"
0]
0^
1T
#357000
1"
1]
1^
0T
#358000
0"
0]
0^
1T
#359000
1"
1]
1^
0T
#360000
0!
0"
0[
0]
0^
0\
1T
#361000
1"
1]
1^
0T
#362000
0"
0]
0^
1T
#363000
1"
1]
1^
0T
#364000
0"
0]
0^
1T
#365000
1"
1]
1^
0T
#366000
0"
0]
0^
1T
#367000
1"
1]
1^
0T
#368000
0"
0]
0^
1T
#369000
1"
1]
1^
0T
#370000
1!
0"
1[
0]
0^
1\
1T
1Y!
0Z!
0e
0d
0c
1`
1f
1e
1d
0f
#371000
1"
1]
1^
0T
#372000
0"
0]
0^
1T
#373000
1"
1]
1^
0T
#374000
0"
0]
0^
1T
#375000
1"
1]
1^
0T
#376000
0"
0]
0^
1T
#377000
1"
1]
1^
0T
#378000
0"
0]
0^
1T
#379000
1"
1]
1^
0T
#380000
0!
0"
0[
0]
0^
0\
1T
#381000
1"
1]
1^
0T
#382000
0"
0]
0^
1T
#383000
1"
1]
1^
0T
#384000
0"
0]
0^
1T
#385000
1"
1]
1^
0T
#386000
0"
0]
0^
1T
#387000
1"
1]
1^
0T
#388000
0"
0]
0^
1T
#389000
1"
1]
1^
0T
#390000
1!
0"
1[
0]
0^
1\
1T
1Z!
1c
0`
0e
0d
1f
#391000
1"
1]
1^
0T
#392000
0"
0]
0^
1T
#393000
1"
1]
1^
0T
#394000
0"
0]
0^
1T
#395000
1"
1]
1^
0T
#396000
0"
0]
0^
1T
#397000
1"
1]
1^
0T
#398000
0"
0]
0^
1T
#399000
1"
1]
1^
0T
#400000
0!
0"
0[
0]
0^
0\
1T
#401000
1"
1]
1^
0T
#402000
0"
0]
0^
1T
#403000
1"
1]
1^
0T
#404000
0"
0]
0^
1T
#405000
1"
1]
1^
0T
#406000
0"
0]
0^
1T
#407000
1"
1]
1^
0T
#408000
0"
0]
0^
1T
#409000
1"
1]
1^
0T
#410000
1!
0"
1[
0]
0^
1\
1T
1X!
0Y!
0Z!
1g
0f
1e
1d
0c
1`
1h
0g
1f
0d
0h
#411000
1"
1]
1^
0T
#412000
0"
0]
0^
1T
#413000
1"
1]
1^
0T
#414000
0"
0]
0^
1T
#415000
1"
1]
1^
0T
#416000
0"
0]
0^
1T
